<!-- 
  //=============================================================================
  //  FILE INFO
  //    $Id: manifest.xml,v 1.1 2008/05/15 13:16:20 jitendrp Exp $
  //=============================================================================
-->
<manifest name="com.sigma.tooling.log" type="GenericCmpntSpec" xmlns="http://www.sigma-systems.com/schemas/4.0/manifest"
  xmlns:dist="http://www.sigma-systems.com/schemas/4.0/distribution" xmlns:xsi="http://www.w3.org/2001/XMLSchema-instance"
  xsi:schemaLocation="http://www.sigma-systems.com/schemas/4.0/manifest ../../samp/xmlcfg/schemas/manifest.xsd">
  <requiredComponents>
    <requiredComponent name="com.sigma.hframe" />
    <requiredComponent name="com.sigma.vframe" />    
    <requiredComponent name="com.sigma.jmf2" />
    <requiredComponent name="com.sigma.tooling.dist" />
    <requiredComponent name="com.sigma.tooling.inst" />
  </requiredComponents>
  <requiredResources />
  <requiredLibraries>
    <library name="weblogic" />
    <library name="ossj" />
    <library name="junit" />
    <library name="substance" />
  </requiredLibraries>
  <buildModules>
    <module name="log-init.jar" type="lib" />
  </buildModules>
</manifest>
